<?xml version="1.0" encoding="UTF-8"?>
<model ref="r:7e47df76-04c9-4764-b718-44289f8c2c89(org.clawiz.ui.common.language.typesystem)">
  <persistence version="9" />
  <languages>
    <devkit ref="00000000-0000-4000-0000-1de82b3a4936(jetbrains.mps.devkit.aspect.typesystem)" />
  </languages>
  <imports />
  <registry />
</model>

